Pipelined Hardware/Pipelined_RDA/adder32alt.vcd
$date
	Mon Mar  1 16:06:13 2021
$end
$version
	Icarus Verilog
$end
$timescale
	1s
$end
$scope module top $end
$var wire 8 ! xout [7:0] $end
$var wire 32 " si [31:0] $end
$var reg 32 # ai [31:0] $end
$var reg 32 $ bi [31:0] $end
$var reg 1 % clk $end
$var reg 1 & rst $end
$var reg 8 ' xin [7:0] $end
$var integer 32 ( i [31:0] $end
$scope module adder_0 $end
$var wire 32 ) a [31:0] $end
$var wire 32 * b [31:0] $end
$var wire 1 % clk $end
$var wire 1 & rst $end
$var wire 8 + xin [7:0] $end
$var wire 8 , xout [7:0] $end
$var wire 256 - y [255:0] $end
$var wire 264 . x [263:0] $end
$var wire 32 / f [31:0] $end
$var wire 32 0 e [31:0] $end
$var wire 32 1 d [31:0] $end
$var wire 32 2 c [31:0] $end
$var reg 32 3 si [31:0] $end
$var integer 32 4 i [31:0] $end
$scope module kpg_0 $end
$var wire 8 5 ai [7:0] $end
$var wire 8 6 bi [7:0] $end
$var wire 64 7 x [63:0] $end
$scope module kpg_0 $end
$var wire 1 8 ai $end
$var wire 1 9 bi $end
$var reg 8 : x [7:0] $end
$upscope $end
$scope module kpg_1 $end
$var wire 1 ; ai $end
$var wire 1 < bi $end
$var reg 8 = x [7:0] $end
$upscope $end
$scope module kpg_2 $end
$var wire 1 > ai $end
$var wire 1 ? bi $end
$var reg 8 @ x [7:0] $end
$upscope $end
$scope module kpg_3 $end
$var wire 1 A ai $end
$var wire 1 B bi $end
$var reg 8 C x [7:0] $end
$upscope $end
$scope module kpg_4 $end
$var wire 1 D ai $end
$var wire 1 E bi $end
$var reg 8 F x [7:0] $end
$upscope $end
$scope module kpg_5 $end
$var wire 1 G ai $end
$var wire 1 H bi $end
$var reg 8 I x [7:0] $end
$upscope $end
$scope module kpg_6 $end
$var wire 1 J ai $end
$var wire 1 K bi $end
$var reg 8 L x [7:0] $end
$upscope $end
$scope module kpg_7 $end
$var wire 1 M ai $end
$var wire 1 N bi $end
$var reg 8 O x [7:0] $end
$upscope $end
$upscope $end
$scope module kpg_1 $end
$var wire 8 P ai [7:0] $end
$var wire 8 Q bi [7:0] $end
$var wire 64 R x [63:0] $end
$scope module kpg_0 $end
$var wire 1 S ai $end
$var wire 1 T bi $end
$var reg 8 U x [7:0] $end
$upscope $end
$scope module kpg_1 $end
$var wire 1 V ai $end
$var wire 1 W bi $end
$var reg 8 X x [7:0] $end
$upscope $end
$scope module kpg_2 $end
$var wire 1 Y ai $end
$var wire 1 Z bi $end
$var reg 8 [ x [7:0] $end
$upscope $end
$scope module kpg_3 $end
$var wire 1 \ ai $end
$var wire 1 ] bi $end
$var reg 8 ^ x [7:0] $end
$upscope $end
$scope module kpg_4 $end
$var wire 1 _ ai $end
$var wire 1 ` bi $end
$var reg 8 a x [7:0] $end
$upscope $end
$scope module kpg_5 $end
$var wire 1 b ai $end
$var wire 1 c bi $end
$var reg 8 d x [7:0] $end
$upscope $end
$scope module kpg_6 $end
$var wire 1 e ai $end
$var wire 1 f bi $end
$var reg 8 g x [7:0] $end
$upscope $end
$scope module kpg_7 $end
$var wire 1 h ai $end
$var wire 1 i bi $end
$var reg 8 j x [7:0] $end
$upscope $end
$upscope $end
$scope module kpg_2 $end
$var wire 8 k ai [7:0] $end
$var wire 8 l bi [7:0] $end
$var wire 64 m x [63:0] $end
$scope module kpg_0 $end
$var wire 1 n ai $end
$var wire 1 o bi $end
$var reg 8 p x [7:0] $end
$upscope $end
$scope module kpg_1 $end
$var wire 1 q ai $end
$var wire 1 r bi $end
$var reg 8 s x [7:0] $end
$upscope $end
$scope module kpg_2 $end
$var wire 1 t ai $end
$var wire 1 u bi $end
$var reg 8 v x [7:0] $end
$upscope $end
$scope module kpg_3 $end
$var wire 1 w ai $end
$var wire 1 x bi $end
$var reg 8 y x [7:0] $end
$upscope $end
$scope module kpg_4 $end
$var wire 1 z ai $end
$var wire 1 { bi $end
$var reg 8 | x [7:0] $end
$upscope $end
$scope module kpg_5 $end
$var wire 1 } ai $end
$var wire 1 ~ bi $end
$var reg 8 !" x [7:0] $end
$upscope $end
$scope module kpg_6 $end
$var wire 1 "" ai $end
$var wire 1 #" bi $end
$var reg 8 $" x [7:0] $end
$upscope $end
$scope module kpg_7 $end
$var wire 1 %" ai $end
$var wire 1 &" bi $end
$var reg 8 '" x [7:0] $end
$upscope $end
$upscope $end
$scope module kpg_3 $end
$var wire 8 (" ai [7:0] $end
$var wire 8 )" bi [7:0] $end
$var wire 64 *" x [63:0] $end
$scope module kpg_0 $end
$var wire 1 +" ai $end
$var wire 1 ," bi $end
$var reg 8 -" x [7:0] $end
$upscope $end
$scope module kpg_1 $end
$var wire 1 ." ai $end
$var wire 1 /" bi $end
$var reg 8 0" x [7:0] $end
$upscope $end
$scope module kpg_2 $end
$var wire 1 1" ai $end
$var wire 1 2" bi $end
$var reg 8 3" x [7:0] $end
$upscope $end
$scope module kpg_3 $end
$var wire 1 4" ai $end
$var wire 1 5" bi $end
$var reg 8 6" x [7:0] $end
$upscope $end
$scope module kpg_4 $end
$var wire 1 7" ai $end
$var wire 1 8" bi $end
$var reg 8 9" x [7:0] $end
$upscope $end
$scope module kpg_5 $end
$var wire 1 :" ai $end
$var wire 1 ;" bi $end
$var reg 8 <" x [7:0] $end
$upscope $end
$scope module kpg_6 $end
$var wire 1 =" ai $end
$var wire 1 >" bi $end
$var reg 8 ?" x [7:0] $end
$upscope $end
$scope module kpg_7 $end
$var wire 1 @" ai $end
$var wire 1 A" bi $end
$var reg 8 B" x [7:0] $end
$upscope $end
$upscope $end
$scope module m1 $end
$var wire 32 C" a [31:0] $end
$var wire 32 D" b [31:0] $end
$var wire 1 % clk $end
$var wire 1 & rst $end
$var reg 32 E" c [31:0] $end
$var reg 32 F" d [31:0] $end
$upscope $end
$scope module ppc_0 $end
$var wire 32 G" a [31:0] $end
$var wire 32 H" b [31:0] $end
$var wire 1 % clk $end
$var wire 1 & rst $end
$var wire 256 I" x [255:0] $end
$var wire 256 J" y [255:0] $end
$var wire 32 K" wire9 [31:0] $end
$var wire 32 L" wire8 [31:0] $end
$var wire 32 M" wire7 [31:0] $end
$var wire 32 N" wire6 [31:0] $end
$var wire 256 O" wire5 [255:0] $end
$var wire 256 P" wire4 [255:0] $end
$var wire 256 Q" wire3 [255:0] $end
$var wire 256 R" wire2 [255:0] $end
$var wire 32 S" wire15 [31:0] $end
$var wire 32 T" wire14 [31:0] $end
$var wire 32 U" wire13 [31:0] $end
$var wire 32 V" wire12 [31:0] $end
$var wire 32 W" wire11 [31:0] $end
$var wire 32 X" wire10 [31:0] $end
$var wire 256 Y" wire1 [255:0] $end
$var wire 256 Z" reg5 [255:0] $end
$var wire 256 [" reg4 [255:0] $end
$var wire 256 \" reg3 [255:0] $end
$var wire 256 ]" reg2 [255:0] $end
$var wire 256 ^" reg1 [255:0] $end
$var wire 32 _" d [31:0] $end
$var wire 32 `" c [31:0] $end
$scope module c1 $end
$var wire 32 a" a [31:0] $end
$var wire 32 b" b [31:0] $end
$var wire 1 % clk $end
$var wire 256 c" d [255:0] $end
$var wire 1 & rst $end
$var reg 256 d" q [255:0] $end
$var reg 32 e" wire1 [31:0] $end
$var reg 32 f" wire2 [31:0] $end
$upscope $end
$scope module c2 $end
$var wire 32 g" a [31:0] $end
$var wire 32 h" b [31:0] $end
$var wire 1 % clk $end
$var wire 1 & rst $end
$var wire 256 i" d [255:0] $end
$var reg 256 j" q [255:0] $end
$var reg 32 k" wire1 [31:0] $end
$var reg 32 l" wire2 [31:0] $end
$upscope $end
$scope module c3 $end
$var wire 32 m" a [31:0] $end
$var wire 32 n" b [31:0] $end
$var wire 1 % clk $end
$var wire 1 & rst $end
$var wire 256 o" d [255:0] $end
$var reg 256 p" q [255:0] $end
$var reg 32 q" wire1 [31:0] $end
$var reg 32 r" wire2 [31:0] $end
$upscope $end
$scope module c4 $end
$var wire 32 s" a [31:0] $end
$var wire 32 t" b [31:0] $end
$var wire 1 % clk $end
$var wire 1 & rst $end
$var wire 256 u" d [255:0] $end
$var reg 256 v" q [255:0] $end
$var reg 32 w" wire1 [31:0] $end
$var reg 32 x" wire2 [31:0] $end
$upscope $end
$scope module c5 $end
$var wire 32 y" a [31:0] $end
$var wire 32 z" b [31:0] $end
$var wire 1 % clk $end
$var wire 1 & rst $end
$var wire 256 {" d [255:0] $end
$var reg 256 |" q [255:0] $end
$var reg 32 }" wire1 [31:0] $end
$var reg 32 ~" wire2 [31:0] $end
$upscope $end
$scope module c6 $end
$var wire 32 !# a [31:0] $end
$var wire 32 "# b [31:0] $end
$var wire 1 % clk $end
$var wire 1 & rst $end
$var wire 256 ## d [255:0] $end
$var reg 256 $# q [255:0] $end
$var reg 32 %# wire1 [31:0] $end
$var reg 32 &# wire2 [31:0] $end
$upscope $end
$scope module m1 $end
$var wire 3 '# k [2:0] $end
$var wire 256 (# x [255:0] $end
$var reg 256 )# y [255:0] $end
$var integer 32 *# i [31:0] $end
$var integer 32 +# j [31:0] $end
$upscope $end
$scope module m2 $end
$var wire 3 ,# k [2:0] $end
$var wire 256 -# x [255:0] $end
$var reg 256 .# y [255:0] $end
$var integer 32 /# i [31:0] $end
$var integer 32 0# j [31:0] $end
$upscope $end
$scope module m3 $end
$var wire 3 1# k [2:0] $end
$var wire 256 2# x [255:0] $end
$var reg 256 3# y [255:0] $end
$var integer 32 4# i [31:0] $end
$var integer 32 5# j [31:0] $end
$upscope $end
$scope module m4 $end
$var wire 3 6# k [2:0] $end
$var wire 256 7# x [255:0] $end
$var reg 256 8# y [255:0] $end
$var integer 32 9# i [31:0] $end
$var integer 32 :# j [31:0] $end
$upscope $end
$scope module m5 $end
$var wire 3 ;# k [2:0] $end
$var wire 256 <# x [255:0] $end
$var reg 256 =# y [255:0] $end
$var integer 32 ># i [31:0] $end
$var integer 32 ?# j [31:0] $end
$upscope $end
$upscope $end
$upscope $end
$upscope $end
$enddefinitions $end
#0
$dumpvars
b100 ?#
b1111 >#
b1100111011001110110011101100111011001110110011101100111011001110110011101100111011001110110011101100111011001110110011101100111011001110110011101100111011001110110011101100111011001110110011101100111011001110110011101100111011001110110011101100111xxxxxxxx =#
b1100111011001110110011101100111011001110110011101100111011001110110011101100111011001110110011101100111011001110110011101100111011001110110011101100111011001110110011101100111011001110110011101100111011001110110011101100111011001110110011101100111xxxxxxxx <#
b100 ;#
b11 :#
b111 9#
b1100111011001110110011101100111011001110110011101100111011001110110011101100111011001110110011101100111011001110110011101100111011001110110011101100111011001110110011101100111011001110110011101100111011001110110011101100111011001110110011101100111xxxxxxxx 8#
b1100111011001110110011101100111011001110110011101100111011001110110011101100111011001110110011101100111011001110110011101100111011001110110011101100111011001110110011101100111011001110110011101100111011001110110011101100111011001110110011101100111xxxxxxxx 7#
b11 6#
b10 5#
b11 4#
b1100111011001110110011101100111011001110110011101100111011001110110011101100111011001110110011101100111011001110110011101100111011001110110011101100111011001110110011101100111011001110110011101100111011001110110011101100111011001110110011101100111xxxxxxxx 3#
b1100111011001110110011101100111011001110110011101100111011001110110011101100111011001110110011101100111011001110110011101100111011001110110011101100111011001110110011101100111011001110110011101100111011001110110011101100111011001110110011101100111xxxxxxxx 2#
b10 1#
b1 0#
b1 /#
b1100111011001110110011101100111011001110110011101100111011001110110011101100111011001110110011101100111011001110110011101100111011001110110011101100111011001110110011101100111011001110110011101100111011001110110011101100111011001110110011101100111xxxxxxxx .#
b1100111011001110110011101100111011001110110011101100111011001110110011101100111011001110110011101100111011001110110011101100111011001110110011101100111011001110110011101100111011001110110011101100111011001110110011101100111011001110110011101100111xxxxxxxx -#
b1 ,#
b0 +#
b0 *#
b1100111011001110110011101100111011001110110011101100111011001110110011101100111011001110110011101100111011001110110011101100111011001110110011101100111011001110110011101100111011001110110011101100111011001110110011101100111011001110110011101100111xxxxxxxx )#
bx (#
b0 '#
bx &#
bx %#
b1100111011001110110011101100111011001110110011101100111011001110110011101100111011001110110011101100111011001110110011101100111011001110110011101100111011001110110011101100111011001110110011101100111011001110110011101100111011001110110011101100111xxxxxxxx $#
b1100111011001110110011101100111011001110110011101100111011001110110011101100111011001110110011101100111011001110110011101100111011001110110011101100111011001110110011101100111011001110110011101100111011001110110011101100111011001110110011101100111xxxxxxxx ##
bx "#
bx !#
bx ~"
bx }"
b1100111011001110110011101100111011001110110011101100111011001110110011101100111011001110110011101100111011001110110011101100111011001110110011101100111011001110110011101100111011001110110011101100111011001110110011101100111011001110110011101100111xxxxxxxx |"
b1100111011001110110011101100111011001110110011101100111011001110110011101100111011001110110011101100111011001110110011101100111011001110110011101100111011001110110011101100111011001110110011101100111011001110110011101100111011001110110011101100111xxxxxxxx {"
bx z"
bx y"
bx x"
bx w"
b1100111011001110110011101100111011001110110011101100111011001110110011101100111011001110110011101100111011001110110011101100111011001110110011101100111011001110110011101100111011001110110011101100111011001110110011101100111011001110110011101100111xxxxxxxx v"
b1100111011001110110011101100111011001110110011101100111011001110110011101100111011001110110011101100111011001110110011101100111011001110110011101100111011001110110011101100111011001110110011101100111011001110110011101100111011001110110011101100111xxxxxxxx u"
bx t"
bx s"
bx r"
bx q"
b1100111011001110110011101100111011001110110011101100111011001110110011101100111011001110110011101100111011001110110011101100111011001110110011101100111011001110110011101100111011001110110011101100111011001110110011101100111011001110110011101100111xxxxxxxx p"
b1100111011001110110011101100111011001110110011101100111011001110110011101100111011001110110011101100111011001110110011101100111011001110110011101100111011001110110011101100111011001110110011101100111011001110110011101100111011001110110011101100111xxxxxxxx o"
bx n"
bx m"
bx l"
bx k"
b1100111011001110110011101100111011001110110011101100111011001110110011101100111011001110110011101100111011001110110011101100111011001110110011101100111011001110110011101100111011001110110011101100111011001110110011101100111011001110110011101100111xxxxxxxx j"
b1100111011001110110011101100111011001110110011101100111011001110110011101100111011001110110011101100111011001110110011101100111011001110110011101100111011001110110011101100111011001110110011101100111011001110110011101100111011001110110011101100111xxxxxxxx i"
bx h"
bx g"
bx f"
bx e"
bx d"
b110101101101011011010110110101101101011011010110110101101101011011010110110101101101011011010110110101101101011011010110110011101101011011010110111000001101011011010110110101101101011011100000111000001110000011100000111000001110000011100000110011101101011 c"
b1000000011111111 b"
b1001000000000001 a"
bx `"
bx _"
bx ^"
b1100111011001110110011101100111011001110110011101100111011001110110011101100111011001110110011101100111011001110110011101100111011001110110011101100111011001110110011101100111011001110110011101100111011001110110011101100111011001110110011101100111xxxxxxxx ]"
b1100111011001110110011101100111011001110110011101100111011001110110011101100111011001110110011101100111011001110110011101100111011001110110011101100111011001110110011101100111011001110110011101100111011001110110011101100111011001110110011101100111xxxxxxxx \"
b1100111011001110110011101100111011001110110011101100111011001110110011101100111011001110110011101100111011001110110011101100111011001110110011101100111011001110110011101100111011001110110011101100111011001110110011101100111011001110110011101100111xxxxxxxx ["
b1100111011001110110011101100111011001110110011101100111011001110110011101100111011001110110011101100111011001110110011101100111011001110110011101100111011001110110011101100111011001110110011101100111011001110110011101100111011001110110011101100111xxxxxxxx Z"
b1100111011001110110011101100111011001110110011101100111011001110110011101100111011001110110011101100111011001110110011101100111011001110110011101100111011001110110011101100111011001110110011101100111011001110110011101100111011001110110011101100111xxxxxxxx Y"
bx X"
bx W"
bx V"
bx U"
bx T"
bx S"
b1100111011001110110011101100111011001110110011101100111011001110110011101100111011001110110011101100111011001110110011101100111011001110110011101100111011001110110011101100111011001110110011101100111011001110110011101100111011001110110011101100111xxxxxxxx R"
b1100111011001110110011101100111011001110110011101100111011001110110011101100111011001110110011101100111011001110110011101100111011001110110011101100111011001110110011101100111011001110110011101100111011001110110011101100111011001110110011101100111xxxxxxxx Q"
b1100111011001110110011101100111011001110110011101100111011001110110011101100111011001110110011101100111011001110110011101100111011001110110011101100111011001110110011101100111011001110110011101100111011001110110011101100111011001110110011101100111xxxxxxxx P"
b1100111011001110110011101100111011001110110011101100111011001110110011101100111011001110110011101100111011001110110011101100111011001110110011101100111011001110110011101100111011001110110011101100111011001110110011101100111011001110110011101100111xxxxxxxx O"
bx N"
bx M"
bx L"
bx K"
b1100111011001110110011101100111011001110110011101100111011001110110011101100111011001110110011101100111011001110110011101100111011001110110011101100111011001110110011101100111011001110110011101100111011001110110011101100111011001110110011101100111xxxxxxxx J"
b110101101101011011010110110101101101011011010110110101101101011011010110110101101101011011010110110101101101011011010110110011101101011011010110111000001101011011010110110101101101011011100000111000001110000011100000111000001110000011100000110011101101011 I"
b1000000011111111 H"
b1001000000000001 G"
b1000000011111111 F"
b1001000000000001 E"
b1000000011111111 D"
b1001000000000001 C"
b1101011 B"
0A"
0@"
b1101011 ?"
0>"
0="
b1101011 <"
0;"
0:"
b1101011 9"
08"
07"
b1101011 6"
05"
04"
b1101011 3"
02"
01"
b1101011 0"
0/"
0."
b1101011 -"
0,"
0+"
b110101101101011011010110110101101101011011010110110101101101011 *"
b0 )"
b0 ("
b1101011 '"
0&"
0%"
b1101011 $"
0#"
0""
b1101011 !"
0~
0}
b1101011 |
0{
0z
b1101011 y
0x
0w
b1101011 v
0u
0t
b1101011 s
0r
0q
b1101011 p
0o
0n
b110101101101011011010110110101101101011011010110110101101101011 m
b0 l
b0 k
b1100111 j
1i
1h
b1101011 g
0f
0e
b1101011 d
0c
0b
b1110000 a
0`
1_
b1101011 ^
0]
0\
b1101011 [
0Z
0Y
b1101011 X
0W
0V
b1101011 U
0T
0S
b110011101101011011010110111000001101011011010110110101101101011 R
b10000000 Q
b10010000 P
b1110000 O
1N
0M
b1110000 L
1K
0J
b1110000 I
1H
0G
b1110000 F
1E
0D
b1110000 C
1B
0A
b1110000 @
1?
0>
b1110000 =
1<
0;
b1100111 :
19
18
b111000001110000011100000111000001110000011100000111000001100111 7
b11111111 6
b1 5
b100000 4
bx 3
b1001000000000001 2
b1000000011111111 1
bx 0
bx /
b11010110110101101101011011010110110101101101011011010110110101101101011011010110110101101101011011010110110101101101011011010110110011101101011011010110111000001101011011010110110101101101011011100000111000001110000011100000111000001110000011100000110011101101011 .
b1100111011001110110011101100111011001110110011101100111011001110110011101100111011001110110011101100111011001110110011101100111011001110110011101100111011001110110011101100111011001110110011101100111011001110110011101100111011001110110011101100111xxxxxxxx -
bz ,
b1101011 +
b1000000011111111 *
b1001000000000001 )
b0 (
b1101011 '
1&
1%
b1000000011111111 $
b1001000000000001 #
bx "
bz !
$end
#1
b1 (
0%
#2
b0 *#
b110101101101011011010110110101101101011011010110110101101101011011010110110101101101011011010110110101101101011011010110110011101101011011010110110101101101011011010110110101101101011011100000111000001110000011100000111000001110000011001110110011101101011 Y"
b110101101101011011010110110101101101011011010110110101101101011011010110110101101101011011010110110101101101011011010110110011101101011011010110110101101101011011010110110101101101011011100000111000001110000011100000111000001110000011001110110011101101011 i"
b110101101101011011010110110101101101011011010110110101101101011011010110110101101101011011010110110101101101011011010110110011101101011011010110110101101101011011010110110101101101011011100000111000001110000011100000111000001110000011001110110011101101011 )#
b1000000011111111 M"
b1000000011111111 f"
b1000000011111111 h"
b1001000000000001 N"
b1001000000000001 e"
b1001000000000001 g"
b110101101101011011010110110101101101011011010110110101101101011011010110110101101101011011010110110101101101011011010110110011101101011011010110111000001101011011010110110101101101011011100000111000001110000011100000111000001110000011100000110011101101011 ^"
b110101101101011011010110110101101101011011010110110101101101011011010110110101101101011011010110110101101101011011010110110011101101011011010110111000001101011011010110110101101101011011100000111000001110000011100000111000001110000011100000110011101101011 d"
b110101101101011011010110110101101101011011010110110101101101011011010110110101101101011011010110110101101101011011010110110011101101011011010110111000001101011011010110110101101101011011100000111000001110000011100000111000001110000011100000110011101101011 (#
b100000 4
b10 (
1%
#3
b11 (
0%
b11111111110011011001110000100001 $
b11111111110011011001110000100001 *
b11111111110011011001110000100001 D"
b100101111011100001010001 #
b100101111011100001010001 )
b100101111011100001010001 C"
#4
b110101101101011011010110110101101101011011010110110101101101011011010110110101101101011011010110110101101101011011010110110011101101011011010110110101101101011011010110110101101101011011100000111000001110000011100000110011101100111011001110110011101101011 R"
b110101101101011011010110110101101101011011010110110101101101011011010110110101101101011011010110110101101101011011010110110011101101011011010110110101101101011011010110110101101101011011100000111000001110000011100000110011101100111011001110110011101101011 o"
b110101101101011011010110110101101101011011010110110101101101011011010110110101101101011011010110110101101101011011010110110011101101011011010110110101101101011011010110110101101101011011100000111000001110000011100000110011101100111011001110110011101101011 .#
b1 /#
b1000000011111111 K"
b1000000011111111 l"
b1000000011111111 n"
b1001000000000001 L"
b1001000000000001 k"
b1001000000000001 m"
b110101101101011011010110110101101101011011010110110101101101011011010110110101101101011011010110110101101101011011010110110011101101011011010110110101101101011011010110110101101101011011100000111000001110000011100000111000001110000011001110110011101101011 ]"
b110101101101011011010110110101101101011011010110110101101101011011010110110101101101011011010110110101101101011011010110110011101101011011010110110101101101011011010110110101101101011011100000111000001110000011100000111000001110000011001110110011101101011 j"
b110101101101011011010110110101101101011011010110110101101101011011010110110101101101011011010110110101101101011011010110110011101101011011010110110101101101011011010110110101101101011011100000111000001110000011100000111000001110000011001110110011101101011 -#
b111000001110000011100000111000001110000011100000111000001100111011100000110101101110000011100000110011101110000011001110110011101101011011100000110011101100111011100000110101101101011011010110111000001110000011100000110101101101011011010110110011101101011 I"
b111000001110000011100000111000001110000011100000111000001100111011100000110101101110000011100000110011101110000011001110110011101101011011100000110011101100111011100000110101101101011011010110111000001110000011100000110101101101011011010110110011101101011 c"
b1110000 -"
b1110000 0"
b1110000 3"
b1110000 6"
b1110000 9"
b1110000 <"
b1110000 ?"
b111000001110000011100000111000001110000011100000111000001110000 *"
b1110000 B"
b1110000 y
b1110000 $"
b1110000 [
b1100111 a
b1101011 =
b1101011 @
b1101011 C
b110101101110000011100000111000001101011011010110110101101100111 7
b1101011 O
b1100111 p
b1110000 s
b1100111 v
b1110000 |
b110011101110000011010110111000001110000011001110111000001100111 m
b1100111 '"
b1100111 ^
b11100000111000001110000011100000111000001110000011100000111000001100111011100000110101101110000011100000110011101110000011001110110011101101011011100000110011101100111011100000110101101101011011010110111000001110000011100000110101101101011011010110110011101101011 .
b110011101101011011100000110011101100111011100000110101101101011 R
b1110000 d
1,"
1/"
12"
15"
18"
1;"
1>"
1A"
1o
1u
1x
1#"
1&"
1Z
1]
1`
0<
0?
0B
0E
0K
0N
1n
1q
1t
1z
1%"
1\
1b
1D
1J
b11111111 )"
b11001101 l
b10011100 Q
b100001 6
b10010111 k
b10111000 P
b1010001 5
b11111111110011011001110000100001 1
b11111111110011011001110000100001 F"
b11111111110011011001110000100001 H"
b11111111110011011001110000100001 b"
b100101111011100001010001 2
b100101111011100001010001 E"
b100101111011100001010001 G"
b100101111011100001010001 a"
b100000 4
b100 (
1%
#5
b101 (
0%
#6
b110101101101011011010110110101101101011011010110110101101101011011010110110101101101011011010110110101101101011011010110110011101101011011010110110101101101011011010110110101101101011011001110110011101100111011001110110011101100111011001110110011101101011 Q"
b110101101101011011010110110101101101011011010110110101101101011011010110110101101101011011010110110101101101011011010110110011101101011011010110110101101101011011010110110101101101011011001110110011101100111011001110110011101100111011001110110011101101011 u"
b110101101101011011010110110101101101011011010110110101101101011011010110110101101101011011010110110101101101011011010110110011101101011011010110110101101101011011010110110101101101011011001110110011101100111011001110110011101100111011001110110011101101011 3#
b11 4#
b111000001110000011100000111000001110000011100000110011101100111011010110110101101110000011001110110011101100111011001110110011101101011011001110110011101100111011010110110101101101011011010110111000001110000011010110110101101101011011010110110011101101011 Y"
b111000001110000011100000111000001110000011100000110011101100111011010110110101101110000011001110110011101100111011001110110011101101011011001110110011101100111011010110110101101101011011010110111000001110000011010110110101101101011011010110110011101101011 i"
b111000001110000011100000111000001110000011100000110011101100111011010110110101101110000011001110110011101100111011001110110011101101011011001110110011101100111011010110110101101101011011010110111000001110000011010110110101101101011011010110110011101101011 )#
b0 *#
b1000000011111111 W"
b1000000011111111 r"
b1000000011111111 t"
b1001000000000001 X"
b1001000000000001 q"
b1001000000000001 s"
b110101101101011011010110110101101101011011010110110101101101011011010110110101101101011011010110110101101101011011010110110011101101011011010110110101101101011011010110110101101101011011100000111000001110000011100000110011101100111011001110110011101101011 \"
b110101101101011011010110110101101101011011010110110101101101011011010110110101101101011011010110110101101101011011010110110011101101011011010110110101101101011011010110110101101101011011100000111000001110000011100000110011101100111011001110110011101101011 p"
b110101101101011011010110110101101101011011010110110101101101011011010110110101101101011011010110110101101101011011010110110011101101011011010110110101101101011011010110110101101101011011100000111000001110000011100000110011101100111011001110110011101101011 2#
b11111111110011011001110000100001 M"
b11111111110011011001110000100001 f"
b11111111110011011001110000100001 h"
b100101111011100001010001 N"
b100101111011100001010001 e"
b100101111011100001010001 g"
b111000001110000011100000111000001110000011100000111000001100111011100000110101101110000011100000110011101110000011001110110011101101011011100000110011101100111011100000110101101101011011010110111000001110000011100000110101101101011011010110110011101101011 ^"
b111000001110000011100000111000001110000011100000111000001100111011100000110101101110000011100000110011101110000011001110110011101101011011100000110011101100111011100000110101101101011011010110111000001110000011100000110101101101011011010110110011101101011 d"
b111000001110000011100000111000001110000011100000111000001100111011100000110101101110000011100000110011101110000011001110110011101101011011100000110011101100111011100000110101101101011011010110111000001110000011100000110101101101011011010110110011101101011 (#
b100000 4
b110 (
1%
#7
b111 (
0%
b101111001111 $
b101111001111 *
b101111001111 D"
b11111111111111111111000110011010 #
b11111111111111111111000110011010 )
b11111111111111111111000110011010 C"
#8
b111000001110000011100000111000001100111011001110110011101100111011010110110101101100111011001110110011101100111011001110110011101101011011001110110011101100111011010110110101101101011011010110110101101101011011010110110101101101011011010110110011101101011 R"
b111000001110000011100000111000001100111011001110110011101100111011010110110101101100111011001110110011101100111011001110110011101101011011001110110011101100111011010110110101101101011011010110110101101101011011010110110101101101011011010110110011101101011 o"
b111000001110000011100000111000001100111011001110110011101100111011010110110101101100111011001110110011101100111011001110110011101101011011001110110011101100111011010110110101101101011011010110110101101101011011010110110101101101011011010110110011101101011 .#
b1 /#
b110101101101011011010110110101101101011011010110110101101101011011010110110101101101011011010110110101101101011011010110110011101101011011010110110101101101011011010110110101101101011011001110110011101100111011001110110011101100111011001110110011101101011 P"
b110101101101011011010110110101101101011011010110110101101101011011010110110101101101011011010110110101101101011011010110110011101101011011010110110101101101011011010110110101101101011011001110110011101100111011001110110011101100111011001110110011101101011 {"
b110101101101011011010110110101101101011011010110110101101101011011010110110101101101011011010110110101101101011011010110110011101101011011010110110101101101011011010110110101101101011011001110110011101100111011001110110011101100111011001110110011101101011 8#
b111 9#
b11111111110011011001110000100001 K"
b11111111110011011001110000100001 l"
b11111111110011011001110000100001 n"
b100101111011100001010001 L"
b100101111011100001010001 k"
b100101111011100001010001 m"
b111000001110000011100000111000001110000011100000110011101100111011010110110101101110000011001110110011101100111011001110110011101101011011001110110011101100111011010110110101101101011011010110111000001110000011010110110101101101011011010110110011101101011 ]"
b111000001110000011100000111000001110000011100000110011101100111011010110110101101110000011001110110011101100111011001110110011101101011011001110110011101100111011010110110101101101011011010110111000001110000011010110110101101101011011010110110011101101011 j"
b111000001110000011100000111000001110000011100000110011101100111011010110110101101110000011001110110011101100111011001110110011101101011011001110110011101100111011010110110101101101011011010110111000001110000011010110110101101101011011010110110011101101011 -#
b1000000011111111 U"
b1000000011111111 x"
b1000000011111111 z"
b1001000000000001 V"
b1001000000000001 w"
b1001000000000001 y"
b110101101101011011010110110101101101011011010110110101101101011011010110110101101101011011010110110101101101011011010110110011101101011011010110110101101101011011010110110101101101011011001110110011101100111011001110110011101100111011001110110011101101011 ["
b110101101101011011010110110101101101011011010110110101101101011011010110110101101101011011010110110101101101011011010110110011101101011011010110110101101101011011010110110101101101011011001110110011101100111011001110110011101100111011001110110011101101011 v"
b110101101101011011010110110101101101011011010110110101101101011011010110110101101101011011010110110101101101011011010110110011101101011011010110110101101101011011010110110101101101011011001110110011101100111011001110110011101100111011001110110011101101011 7#
b111000001110000011100000111000001110000011100000111000001110000011100000111000001110000011100000111000001110000011100000111000001110000011100000111000001110000011010110111000001100111011001110111000001101011011100000110011101110000011001110111000001101011 I"
b111000001110000011100000111000001110000011100000111000001110000011100000111000001110000011100000111000001110000011100000111000001110000011100000111000001110000011010110111000001100111011001110111000001101011011100000110011101110000011001110111000001101011 c"
b1110000 p
b1110000 v
b1110000 '"
b1110000 X
b1101011 [
b1110000 a
b1110000 j
b1110000 @
b1101011 I
b111000001110000011100000111000001110000011100000111000001110000 m
b1110000 !"
b1100111 U
b1110000 ^
b111000001110000011100000111000001110000011010110111000001100111 R
b1110000 g
b1110000 :
b1100111 =
b1100111 C
b11100000111000001110000011100000111000001110000011100000111000001110000011100000111000001110000011100000111000001110000011100000111000001110000011100000111000001110000011010110111000001100111011001110111000001101011011100000110011101110000011001110111000001101011 .
b110011101110000011010110111000001100111011100000110011101110000 7
b1100111 O
0,"
0/"
02"
05"
08"
0;"
0>"
0A"
0o
0u
0x
0#"
0&"
1T
1W
0Z
0`
0i
1<
1?
1B
0H
1K
1N
1+"
1."
11"
14"
17"
1:"
1="
1@"
1w
1}
1""
1S
0\
1e
08
1;
1A
0J
1M
b0 )"
b0 l
b1011 Q
b11001111 6
b11111111 ("
b11111111 k
b11110001 P
b10011010 5
b101111001111 1
b101111001111 F"
b101111001111 H"
b101111001111 b"
b11111111111111111111000110011010 2
b11111111111111111111000110011010 E"
b11111111111111111111000110011010 G"
b11111111111111111111000110011010 a"
b100000 4
b1000 (
1%
#9
b1001 (
0%
