Pipelined Hardware/RDA_Pipelined/adder32alt.vcd
$date
	Wed Feb 10 17:11:16 2021
$end
$version
	Icarus Verilog
$end
$timescale
	1s
$end
$scope module top $end
$var wire 8 ! xout [7:0] $end
$var wire 32 " si [31:0] $end
$var reg 32 # ai [31:0] $end
$var reg 32 $ bi [31:0] $end
$var reg 1 % clk $end
$var reg 1 & rst $end
$var reg 8 ' xin [7:0] $end
$var integer 32 ( i [31:0] $end
$scope module adder_0 $end
$var wire 32 ) a [31:0] $end
$var wire 32 * b [31:0] $end
$var wire 1 % clk $end
$var wire 1 & rst $end
$var wire 8 + xin [7:0] $end
$var wire 8 , xout [7:0] $end
$var wire 256 - y [255:0] $end
$var wire 264 . x [263:0] $end
$var wire 32 / f [31:0] $end
$var wire 32 0 e [31:0] $end
$var wire 32 1 d [31:0] $end
$var wire 32 2 c [31:0] $end
$var reg 32 3 si [31:0] $end
$var reg 8 4 ym [7:0] $end
$var integer 32 5 i [31:0] $end
$scope module kpg_0 $end
$var wire 8 6 ai [7:0] $end
$var wire 8 7 bi [7:0] $end
$var wire 64 8 x [63:0] $end
$scope module kpg_0 $end
$var wire 1 9 ai $end
$var wire 1 : bi $end
$var reg 8 ; x [7:0] $end
$upscope $end
$scope module kpg_1 $end
$var wire 1 < ai $end
$var wire 1 = bi $end
$var reg 8 > x [7:0] $end
$upscope $end
$scope module kpg_2 $end
$var wire 1 ? ai $end
$var wire 1 @ bi $end
$var reg 8 A x [7:0] $end
$upscope $end
$scope module kpg_3 $end
$var wire 1 B ai $end
$var wire 1 C bi $end
$var reg 8 D x [7:0] $end
$upscope $end
$scope module kpg_4 $end
$var wire 1 E ai $end
$var wire 1 F bi $end
$var reg 8 G x [7:0] $end
$upscope $end
$scope module kpg_5 $end
$var wire 1 H ai $end
$var wire 1 I bi $end
$var reg 8 J x [7:0] $end
$upscope $end
$scope module kpg_6 $end
$var wire 1 K ai $end
$var wire 1 L bi $end
$var reg 8 M x [7:0] $end
$upscope $end
$scope module kpg_7 $end
$var wire 1 N ai $end
$var wire 1 O bi $end
$var reg 8 P x [7:0] $end
$upscope $end
$upscope $end
$scope module kpg_1 $end
$var wire 8 Q ai [7:0] $end
$var wire 8 R bi [7:0] $end
$var wire 64 S x [63:0] $end
$scope module kpg_0 $end
$var wire 1 T ai $end
$var wire 1 U bi $end
$var reg 8 V x [7:0] $end
$upscope $end
$scope module kpg_1 $end
$var wire 1 W ai $end
$var wire 1 X bi $end
$var reg 8 Y x [7:0] $end
$upscope $end
$scope module kpg_2 $end
$var wire 1 Z ai $end
$var wire 1 [ bi $end
$var reg 8 \ x [7:0] $end
$upscope $end
$scope module kpg_3 $end
$var wire 1 ] ai $end
$var wire 1 ^ bi $end
$var reg 8 _ x [7:0] $end
$upscope $end
$scope module kpg_4 $end
$var wire 1 ` ai $end
$var wire 1 a bi $end
$var reg 8 b x [7:0] $end
$upscope $end
$scope module kpg_5 $end
$var wire 1 c ai $end
$var wire 1 d bi $end
$var reg 8 e x [7:0] $end
$upscope $end
$scope module kpg_6 $end
$var wire 1 f ai $end
$var wire 1 g bi $end
$var reg 8 h x [7:0] $end
$upscope $end
$scope module kpg_7 $end
$var wire 1 i ai $end
$var wire 1 j bi $end
$var reg 8 k x [7:0] $end
$upscope $end
$upscope $end
$scope module kpg_2 $end
$var wire 8 l ai [7:0] $end
$var wire 8 m bi [7:0] $end
$var wire 64 n x [63:0] $end
$scope module kpg_0 $end
$var wire 1 o ai $end
$var wire 1 p bi $end
$var reg 8 q x [7:0] $end
$upscope $end
$scope module kpg_1 $end
$var wire 1 r ai $end
$var wire 1 s bi $end
$var reg 8 t x [7:0] $end
$upscope $end
$scope module kpg_2 $end
$var wire 1 u ai $end
$var wire 1 v bi $end
$var reg 8 w x [7:0] $end
$upscope $end
$scope module kpg_3 $end
$var wire 1 x ai $end
$var wire 1 y bi $end
$var reg 8 z x [7:0] $end
$upscope $end
$scope module kpg_4 $end
$var wire 1 { ai $end
$var wire 1 | bi $end
$var reg 8 } x [7:0] $end
$upscope $end
$scope module kpg_5 $end
$var wire 1 ~ ai $end
$var wire 1 !" bi $end
$var reg 8 "" x [7:0] $end
$upscope $end
$scope module kpg_6 $end
$var wire 1 #" ai $end
$var wire 1 $" bi $end
$var reg 8 %" x [7:0] $end
$upscope $end
$scope module kpg_7 $end
$var wire 1 &" ai $end
$var wire 1 '" bi $end
$var reg 8 (" x [7:0] $end
$upscope $end
$upscope $end
$scope module kpg_3 $end
$var wire 8 )" ai [7:0] $end
$var wire 8 *" bi [7:0] $end
$var wire 64 +" x [63:0] $end
$scope module kpg_0 $end
$var wire 1 ," ai $end
$var wire 1 -" bi $end
$var reg 8 ." x [7:0] $end
$upscope $end
$scope module kpg_1 $end
$var wire 1 /" ai $end
$var wire 1 0" bi $end
$var reg 8 1" x [7:0] $end
$upscope $end
$scope module kpg_2 $end
$var wire 1 2" ai $end
$var wire 1 3" bi $end
$var reg 8 4" x [7:0] $end
$upscope $end
$scope module kpg_3 $end
$var wire 1 5" ai $end
$var wire 1 6" bi $end
$var reg 8 7" x [7:0] $end
$upscope $end
$scope module kpg_4 $end
$var wire 1 8" ai $end
$var wire 1 9" bi $end
$var reg 8 :" x [7:0] $end
$upscope $end
$scope module kpg_5 $end
$var wire 1 ;" ai $end
$var wire 1 <" bi $end
$var reg 8 =" x [7:0] $end
$upscope $end
$scope module kpg_6 $end
$var wire 1 >" ai $end
$var wire 1 ?" bi $end
$var reg 8 @" x [7:0] $end
$upscope $end
$scope module kpg_7 $end
$var wire 1 A" ai $end
$var wire 1 B" bi $end
$var reg 8 C" x [7:0] $end
$upscope $end
$upscope $end
$scope module m1 $end
$var wire 32 D" a [31:0] $end
$var wire 32 E" b [31:0] $end
$var wire 1 % clk $end
$var wire 1 & rst $end
$var reg 32 F" c [31:0] $end
$var reg 32 G" d [31:0] $end
$upscope $end
$scope module ppc_0 $end
$var wire 32 H" a [31:0] $end
$var wire 32 I" b [31:0] $end
$var wire 1 % clk $end
$var wire 1 & rst $end
$var wire 256 J" x [255:0] $end
$var wire 256 K" y [255:0] $end
$var wire 32 L" wire9 [31:0] $end
$var wire 32 M" wire8 [31:0] $end
$var wire 32 N" wire7 [31:0] $end
$var wire 32 O" wire6 [31:0] $end
$var wire 256 P" wire5 [255:0] $end
$var wire 256 Q" wire4 [255:0] $end
$var wire 256 R" wire3 [255:0] $end
$var wire 256 S" wire2 [255:0] $end
$var wire 32 T" wire15 [31:0] $end
$var wire 32 U" wire14 [31:0] $end
$var wire 32 V" wire13 [31:0] $end
$var wire 32 W" wire12 [31:0] $end
$var wire 32 X" wire11 [31:0] $end
$var wire 32 Y" wire10 [31:0] $end
$var wire 256 Z" wire1 [255:0] $end
$var wire 256 [" reg5 [255:0] $end
$var wire 256 \" reg4 [255:0] $end
$var wire 256 ]" reg3 [255:0] $end
$var wire 256 ^" reg2 [255:0] $end
$var wire 256 _" reg1 [255:0] $end
$var wire 32 `" d [31:0] $end
$var wire 32 a" c [31:0] $end
$scope module c1 $end
$var wire 32 b" a [31:0] $end
$var wire 32 c" b [31:0] $end
$var wire 1 % clk $end
$var wire 256 d" d [255:0] $end
$var wire 1 & rst $end
$var reg 256 e" q [255:0] $end
$var reg 32 f" wire1 [31:0] $end
$var reg 32 g" wire2 [31:0] $end
$upscope $end
$scope module c2 $end
$var wire 32 h" a [31:0] $end
$var wire 32 i" b [31:0] $end
$var wire 1 % clk $end
$var wire 1 & rst $end
$var wire 256 j" d [255:0] $end
$var reg 256 k" q [255:0] $end
$var reg 32 l" wire1 [31:0] $end
$var reg 32 m" wire2 [31:0] $end
$upscope $end
$scope module c3 $end
$var wire 32 n" a [31:0] $end
$var wire 32 o" b [31:0] $end
$var wire 1 % clk $end
$var wire 1 & rst $end
$var wire 256 p" d [255:0] $end
$var reg 256 q" q [255:0] $end
$var reg 32 r" wire1 [31:0] $end
$var reg 32 s" wire2 [31:0] $end
$upscope $end
$scope module c4 $end
$var wire 32 t" a [31:0] $end
$var wire 32 u" b [31:0] $end
$var wire 1 % clk $end
$var wire 1 & rst $end
$var wire 256 v" d [255:0] $end
$var reg 256 w" q [255:0] $end
$var reg 32 x" wire1 [31:0] $end
$var reg 32 y" wire2 [31:0] $end
$upscope $end
$scope module c5 $end
$var wire 32 z" a [31:0] $end
$var wire 32 {" b [31:0] $end
$var wire 1 % clk $end
$var wire 1 & rst $end
$var wire 256 |" d [255:0] $end
$var reg 256 }" q [255:0] $end
$var reg 32 ~" wire1 [31:0] $end
$var reg 32 !# wire2 [31:0] $end
$upscope $end
$scope module c6 $end
$var wire 32 "# a [31:0] $end
$var wire 32 ## b [31:0] $end
$var wire 1 % clk $end
$var wire 1 & rst $end
$var wire 256 $# d [255:0] $end
$var reg 256 %# q [255:0] $end
$var reg 32 &# wire1 [31:0] $end
$var reg 32 '# wire2 [31:0] $end
$upscope $end
$scope module m1 $end
$var wire 3 (# k [2:0] $end
$var wire 256 )# x [255:0] $end
$var reg 256 *# y [255:0] $end
$var integer 32 +# i [31:0] $end
$var integer 32 ,# j [31:0] $end
$upscope $end
$scope module m2 $end
$var wire 3 -# k [2:0] $end
$var wire 256 .# x [255:0] $end
$var reg 256 /# y [255:0] $end
$var integer 32 0# i [31:0] $end
$var integer 32 1# j [31:0] $end
$upscope $end
$scope module m3 $end
$var wire 3 2# k [2:0] $end
$var wire 256 3# x [255:0] $end
$var reg 256 4# y [255:0] $end
$var integer 32 5# i [31:0] $end
$var integer 32 6# j [31:0] $end
$upscope $end
$scope module m4 $end
$var wire 3 7# k [2:0] $end
$var wire 256 8# x [255:0] $end
$var reg 256 9# y [255:0] $end
$var integer 32 :# i [31:0] $end
$var integer 32 ;# j [31:0] $end
$upscope $end
$scope module m5 $end
$var wire 3 <# k [2:0] $end
$var wire 256 =# x [255:0] $end
$var reg 256 ># y [255:0] $end
$var integer 32 ?# i [31:0] $end
$var integer 32 @# j [31:0] $end
$upscope $end
$upscope $end
$upscope $end
$upscope $end
$enddefinitions $end
#0
$dumpvars
b100 @#
b1111 ?#
b1100111011001110110011101100111011001110110011101100111011001110110011101100111011001110110011101100111011001110110011101100111011001110110011101100111011001110110011101100111011001110110011101100111011001110110011101100111011001110110011101100111xxxxxxxx >#
b1100111011001110110011101100111011001110110011101100111011001110110011101100111011001110110011101100111011001110110011101100111011001110110011101100111011001110110011101100111011001110110011101100111011001110110011101100111011001110110011101100111xxxxxxxx =#
b100 <#
b11 ;#
b111 :#
b1100111011001110110011101100111011001110110011101100111011001110110011101100111011001110110011101100111011001110110011101100111011001110110011101100111011001110110011101100111011001110110011101100111011001110110011101100111011001110110011101100111xxxxxxxx 9#
b1100111011001110110011101100111011001110110011101100111011001110110011101100111011001110110011101100111011001110110011101100111011001110110011101100111011001110110011101100111011001110110011101100111011001110110011101100111011001110110011101100111xxxxxxxx 8#
b11 7#
b10 6#
b11 5#
b1100111011001110110011101100111011001110110011101100111011001110110011101100111011001110110011101100111011001110110011101100111011001110110011101100111011001110110011101100111011001110110011101100111011001110110011101100111011001110110011101100111xxxxxxxx 4#
b1100111011001110110011101100111011001110110011101100111011001110110011101100111011001110110011101100111011001110110011101100111011001110110011101100111011001110110011101100111011001110110011101100111011001110110011101100111011001110110011101100111xxxxxxxx 3#
b10 2#
b1 1#
b1 0#
b1100111011001110110011101100111011001110110011101100111011001110110011101100111011001110110011101100111011001110110011101100111011001110110011101100111011001110110011101100111011001110110011101100111011001110110011101100111011001110110011101100111xxxxxxxx /#
b1100111011001110110011101100111011001110110011101100111011001110110011101100111011001110110011101100111011001110110011101100111011001110110011101100111011001110110011101100111011001110110011101100111011001110110011101100111011001110110011101100111xxxxxxxx .#
b1 -#
b0 ,#
b0 +#
b1100111011001110110011101100111011001110110011101100111011001110110011101100111011001110110011101100111011001110110011101100111011001110110011101100111011001110110011101100111011001110110011101100111011001110110011101100111011001110110011101100111xxxxxxxx *#
bx )#
b0 (#
bx '#
bx &#
b1100111011001110110011101100111011001110110011101100111011001110110011101100111011001110110011101100111011001110110011101100111011001110110011101100111011001110110011101100111011001110110011101100111011001110110011101100111011001110110011101100111xxxxxxxx %#
b1100111011001110110011101100111011001110110011101100111011001110110011101100111011001110110011101100111011001110110011101100111011001110110011101100111011001110110011101100111011001110110011101100111011001110110011101100111011001110110011101100111xxxxxxxx $#
bx ##
bx "#
bx !#
bx ~"
b1100111011001110110011101100111011001110110011101100111011001110110011101100111011001110110011101100111011001110110011101100111011001110110011101100111011001110110011101100111011001110110011101100111011001110110011101100111011001110110011101100111xxxxxxxx }"
b1100111011001110110011101100111011001110110011101100111011001110110011101100111011001110110011101100111011001110110011101100111011001110110011101100111011001110110011101100111011001110110011101100111011001110110011101100111011001110110011101100111xxxxxxxx |"
bx {"
bx z"
bx y"
bx x"
b1100111011001110110011101100111011001110110011101100111011001110110011101100111011001110110011101100111011001110110011101100111011001110110011101100111011001110110011101100111011001110110011101100111011001110110011101100111011001110110011101100111xxxxxxxx w"
b1100111011001110110011101100111011001110110011101100111011001110110011101100111011001110110011101100111011001110110011101100111011001110110011101100111011001110110011101100111011001110110011101100111011001110110011101100111011001110110011101100111xxxxxxxx v"
bx u"
bx t"
bx s"
bx r"
b1100111011001110110011101100111011001110110011101100111011001110110011101100111011001110110011101100111011001110110011101100111011001110110011101100111011001110110011101100111011001110110011101100111011001110110011101100111011001110110011101100111xxxxxxxx q"
b1100111011001110110011101100111011001110110011101100111011001110110011101100111011001110110011101100111011001110110011101100111011001110110011101100111011001110110011101100111011001110110011101100111011001110110011101100111011001110110011101100111xxxxxxxx p"
bx o"
bx n"
bx m"
bx l"
b1100111011001110110011101100111011001110110011101100111011001110110011101100111011001110110011101100111011001110110011101100111011001110110011101100111011001110110011101100111011001110110011101100111011001110110011101100111011001110110011101100111xxxxxxxx k"
b1100111011001110110011101100111011001110110011101100111011001110110011101100111011001110110011101100111011001110110011101100111011001110110011101100111011001110110011101100111011001110110011101100111011001110110011101100111011001110110011101100111xxxxxxxx j"
bx i"
bx h"
bx g"
bx f"
bx e"
b110101101101011011010110110101101101011011010110110101101101011011010110110101101101011011010110110101101101011011010110110011101101011011010110111000001101011011010110110101101101011011100000111000001110000011100000111000001110000011100000110011101101011 d"
b1000000011111111 c"
b1001000000000001 b"
bx a"
bx `"
bx _"
b1100111011001110110011101100111011001110110011101100111011001110110011101100111011001110110011101100111011001110110011101100111011001110110011101100111011001110110011101100111011001110110011101100111011001110110011101100111011001110110011101100111xxxxxxxx ^"
b1100111011001110110011101100111011001110110011101100111011001110110011101100111011001110110011101100111011001110110011101100111011001110110011101100111011001110110011101100111011001110110011101100111011001110110011101100111011001110110011101100111xxxxxxxx ]"
b1100111011001110110011101100111011001110110011101100111011001110110011101100111011001110110011101100111011001110110011101100111011001110110011101100111011001110110011101100111011001110110011101100111011001110110011101100111011001110110011101100111xxxxxxxx \"
b1100111011001110110011101100111011001110110011101100111011001110110011101100111011001110110011101100111011001110110011101100111011001110110011101100111011001110110011101100111011001110110011101100111011001110110011101100111011001110110011101100111xxxxxxxx ["
b1100111011001110110011101100111011001110110011101100111011001110110011101100111011001110110011101100111011001110110011101100111011001110110011101100111011001110110011101100111011001110110011101100111011001110110011101100111011001110110011101100111xxxxxxxx Z"
bx Y"
bx X"
bx W"
bx V"
bx U"
bx T"
b1100111011001110110011101100111011001110110011101100111011001110110011101100111011001110110011101100111011001110110011101100111011001110110011101100111011001110110011101100111011001110110011101100111011001110110011101100111011001110110011101100111xxxxxxxx S"
b1100111011001110110011101100111011001110110011101100111011001110110011101100111011001110110011101100111011001110110011101100111011001110110011101100111011001110110011101100111011001110110011101100111011001110110011101100111011001110110011101100111xxxxxxxx R"
b1100111011001110110011101100111011001110110011101100111011001110110011101100111011001110110011101100111011001110110011101100111011001110110011101100111011001110110011101100111011001110110011101100111011001110110011101100111011001110110011101100111xxxxxxxx Q"
b1100111011001110110011101100111011001110110011101100111011001110110011101100111011001110110011101100111011001110110011101100111011001110110011101100111011001110110011101100111011001110110011101100111011001110110011101100111011001110110011101100111xxxxxxxx P"
bx O"
bx N"
bx M"
bx L"
b1100111011001110110011101100111011001110110011101100111011001110110011101100111011001110110011101100111011001110110011101100111011001110110011101100111011001110110011101100111011001110110011101100111011001110110011101100111011001110110011101100111xxxxxxxx K"
b110101101101011011010110110101101101011011010110110101101101011011010110110101101101011011010110110101101101011011010110110011101101011011010110111000001101011011010110110101101101011011100000111000001110000011100000111000001110000011100000110011101101011 J"
b1000000011111111 I"
b1001000000000001 H"
b1000000011111111 G"
b1001000000000001 F"
b1000000011111111 E"
b1001000000000001 D"
b1101011 C"
0B"
0A"
b1101011 @"
0?"
0>"
b1101011 ="
0<"
0;"
b1101011 :"
09"
08"
b1101011 7"
06"
05"
b1101011 4"
03"
02"
b1101011 1"
00"
0/"
b1101011 ."
0-"
0,"
b110101101101011011010110110101101101011011010110110101101101011 +"
b0 *"
b0 )"
b1101011 ("
0'"
0&"
b1101011 %"
0$"
0#"
b1101011 ""
0!"
0~
b1101011 }
0|
0{
b1101011 z
0y
0x
b1101011 w
0v
0u
b1101011 t
0s
0r
b1101011 q
0p
0o
b110101101101011011010110110101101101011011010110110101101101011 n
b0 m
b0 l
b1100111 k
1j
1i
b1101011 h
0g
0f
b1101011 e
0d
0c
b1110000 b
0a
1`
b1101011 _
0^
0]
b1101011 \
0[
0Z
b1101011 Y
0X
0W
b1101011 V
0U
0T
b110011101101011011010110111000001101011011010110110101101101011 S
b10000000 R
b10010000 Q
b1110000 P
1O
0N
b1110000 M
1L
0K
b1110000 J
1I
0H
b1110000 G
1F
0E
b1110000 D
1C
0B
b1110000 A
1@
0?
b1110000 >
1=
0<
b1100111 ;
1:
19
b111000001110000011100000111000001110000011100000111000001100111 8
b11111111 7
b1 6
b100000 5
bx 4
bx 3
b1001000000000001 2
b1000000011111111 1
bx 0
bx /
b11010110110101101101011011010110110101101101011011010110110101101101011011010110110101101101011011010110110101101101011011010110110011101101011011010110111000001101011011010110110101101101011011100000111000001110000011100000111000001110000011100000110011101101011 .
b1100111011001110110011101100111011001110110011101100111011001110110011101100111011001110110011101100111011001110110011101100111011001110110011101100111011001110110011101100111011001110110011101100111011001110110011101100111011001110110011101100111xxxxxxxx -
bz ,
b1101011 +
b1000000011111111 *
b1001000000000001 )
b0 (
b1101011 '
1&
1%
b1000000011111111 $
b1001000000000001 #
bx "
bz !
$end
#1
b1 (
0%
#2
b0 +#
b110101101101011011010110110101101101011011010110110101101101011011010110110101101101011011010110110101101101011011010110110011101101011011010110110101101101011011010110110101101101011011100000111000001110000011100000111000001110000011001110110011101101011 Z"
b110101101101011011010110110101101101011011010110110101101101011011010110110101101101011011010110110101101101011011010110110011101101011011010110110101101101011011010110110101101101011011100000111000001110000011100000111000001110000011001110110011101101011 j"
b110101101101011011010110110101101101011011010110110101101101011011010110110101101101011011010110110101101101011011010110110011101101011011010110110101101101011011010110110101101101011011100000111000001110000011100000111000001110000011001110110011101101011 *#
b1000000011111111 N"
b1000000011111111 g"
b1000000011111111 i"
b1001000000000001 O"
b1001000000000001 f"
b1001000000000001 h"
b110101101101011011010110110101101101011011010110110101101101011011010110110101101101011011010110110101101101011011010110110011101101011011010110111000001101011011010110110101101101011011100000111000001110000011100000111000001110000011100000110011101101011 _"
b110101101101011011010110110101101101011011010110110101101101011011010110110101101101011011010110110101101101011011010110110011101101011011010110111000001101011011010110110101101101011011100000111000001110000011100000111000001110000011100000110011101101011 e"
b110101101101011011010110110101101101011011010110110101101101011011010110110101101101011011010110110101101101011011010110110011101101011011010110111000001101011011010110110101101101011011100000111000001110000011100000111000001110000011100000110011101101011 )#
b100000 5
b10 (
1%
#3
b11 (
0%
b11111111110011011001110000100001 $
b11111111110011011001110000100001 *
b11111111110011011001110000100001 E"
b100101111011100001010001 #
b100101111011100001010001 )
b100101111011100001010001 D"
#4
b110101101101011011010110110101101101011011010110110101101101011011010110110101101101011011010110110101101101011011010110110011101101011011010110110101101101011011010110110101101101011011100000111000001110000011100000110011101100111011001110110011101101011 S"
b110101101101011011010110110101101101011011010110110101101101011011010110110101101101011011010110110101101101011011010110110011101101011011010110110101101101011011010110110101101101011011100000111000001110000011100000110011101100111011001110110011101101011 p"
b110101101101011011010110110101101101011011010110110101101101011011010110110101101101011011010110110101101101011011010110110011101101011011010110110101101101011011010110110101101101011011100000111000001110000011100000110011101100111011001110110011101101011 /#
b1 0#
b1000000011111111 L"
b1000000011111111 m"
b1000000011111111 o"
b1001000000000001 M"
b1001000000000001 l"
b1001000000000001 n"
b110101101101011011010110110101101101011011010110110101101101011011010110110101101101011011010110110101101101011011010110110011101101011011010110110101101101011011010110110101101101011011100000111000001110000011100000111000001110000011001110110011101101011 ^"
b110101101101011011010110110101101101011011010110110101101101011011010110110101101101011011010110110101101101011011010110110011101101011011010110110101101101011011010110110101101101011011100000111000001110000011100000111000001110000011001110110011101101011 k"
b110101101101011011010110110101101101011011010110110101101101011011010110110101101101011011010110110101101101011011010110110011101101011011010110110101101101011011010110110101101101011011100000111000001110000011100000111000001110000011001110110011101101011 .#
b111000001110000011100000111000001110000011100000111000001100111011100000110101101110000011100000110011101110000011001110110011101101011011100000110011101100111011100000110101101101011011010110111000001110000011100000110101101101011011010110110011101101011 J"
b111000001110000011100000111000001110000011100000111000001100111011100000110101101110000011100000110011101110000011001110110011101101011011100000110011101100111011100000110101101101011011010110111000001110000011100000110101101101011011010110110011101101011 d"
b1110000 ."
b1110000 1"
b1110000 4"
b1110000 7"
b1110000 :"
b1110000 ="
b1110000 @"
b111000001110000011100000111000001110000011100000111000001110000 +"
b1110000 C"
b1110000 z
b1110000 %"
b1110000 \
b1100111 b
b1101011 >
b1101011 A
b1101011 D
b110101101110000011100000111000001101011011010110110101101100111 8
b1101011 P
b1100111 q
b1110000 t
b1100111 w
b1110000 }
b110011101110000011010110111000001110000011001110111000001100111 n
b1100111 ("
b1100111 _
b11100000111000001110000011100000111000001110000011100000111000001100111011100000110101101110000011100000110011101110000011001110110011101101011011100000110011101100111011100000110101101101011011010110111000001110000011100000110101101101011011010110110011101101011 .
b110011101101011011100000110011101100111011100000110101101101011 S
b1110000 e
1-"
10"
13"
16"
19"
1<"
1?"
1B"
1p
1v
1y
1$"
1'"
1[
1^
1a
0=
0@
0C
0F
0L
0O
1o
1r
1u
1{
1&"
1]
1c
1E
1K
b11111111 *"
b11001101 m
b10011100 R
b100001 7
b10010111 l
b10111000 Q
b1010001 6
b11111111110011011001110000100001 1
b11111111110011011001110000100001 G"
b11111111110011011001110000100001 I"
b11111111110011011001110000100001 c"
b100101111011100001010001 2
b100101111011100001010001 F"
b100101111011100001010001 H"
b100101111011100001010001 b"
b100000 5
b100 (
1%
#5
b101 (
0%
#6
b110101101101011011010110110101101101011011010110110101101101011011010110110101101101011011010110110101101101011011010110110011101101011011010110110101101101011011010110110101101101011011001110110011101100111011001110110011101100111011001110110011101101011 R"
b110101101101011011010110110101101101011011010110110101101101011011010110110101101101011011010110110101101101011011010110110011101101011011010110110101101101011011010110110101101101011011001110110011101100111011001110110011101100111011001110110011101101011 v"
b110101101101011011010110110101101101011011010110110101101101011011010110110101101101011011010110110101101101011011010110110011101101011011010110110101101101011011010110110101101101011011001110110011101100111011001110110011101100111011001110110011101101011 4#
b11 5#
b111000001110000011100000111000001110000011100000110011101100111011010110110101101110000011001110110011101100111011001110110011101101011011001110110011101100111011010110110101101101011011010110111000001110000011010110110101101101011011010110110011101101011 Z"
b111000001110000011100000111000001110000011100000110011101100111011010110110101101110000011001110110011101100111011001110110011101101011011001110110011101100111011010110110101101101011011010110111000001110000011010110110101101101011011010110110011101101011 j"
b111000001110000011100000111000001110000011100000110011101100111011010110110101101110000011001110110011101100111011001110110011101101011011001110110011101100111011010110110101101101011011010110111000001110000011010110110101101101011011010110110011101101011 *#
b0 +#
b1000000011111111 X"
b1000000011111111 s"
b1000000011111111 u"
b1001000000000001 Y"
b1001000000000001 r"
b1001000000000001 t"
b110101101101011011010110110101101101011011010110110101101101011011010110110101101101011011010110110101101101011011010110110011101101011011010110110101101101011011010110110101101101011011100000111000001110000011100000110011101100111011001110110011101101011 ]"
b110101101101011011010110110101101101011011010110110101101101011011010110110101101101011011010110110101101101011011010110110011101101011011010110110101101101011011010110110101101101011011100000111000001110000011100000110011101100111011001110110011101101011 q"
b110101101101011011010110110101101101011011010110110101101101011011010110110101101101011011010110110101101101011011010110110011101101011011010110110101101101011011010110110101101101011011100000111000001110000011100000110011101100111011001110110011101101011 3#
b11111111110011011001110000100001 N"
b11111111110011011001110000100001 g"
b11111111110011011001110000100001 i"
b100101111011100001010001 O"
b100101111011100001010001 f"
b100101111011100001010001 h"
b111000001110000011100000111000001110000011100000111000001100111011100000110101101110000011100000110011101110000011001110110011101101011011100000110011101100111011100000110101101101011011010110111000001110000011100000110101101101011011010110110011101101011 _"
b111000001110000011100000111000001110000011100000111000001100111011100000110101101110000011100000110011101110000011001110110011101101011011100000110011101100111011100000110101101101011011010110111000001110000011100000110101101101011011010110110011101101011 e"
b111000001110000011100000111000001110000011100000111000001100111011100000110101101110000011100000110011101110000011001110110011101101011011100000110011101100111011100000110101101101011011010110111000001110000011100000110101101101011011010110110011101101011 )#
b100000 5
b110 (
1%
#7
b111 (
0%
b101111001111 $
b101111001111 *
b101111001111 E"
b11111111111111111111000110011010 #
b11111111111111111111000110011010 )
b11111111111111111111000110011010 D"
#8
b111000001110000011100000111000001100111011001110110011101100111011010110110101101100111011001110110011101100111011001110110011101101011011001110110011101100111011010110110101101101011011010110110101101101011011010110110101101101011011010110110011101101011 S"
b111000001110000011100000111000001100111011001110110011101100111011010110110101101100111011001110110011101100111011001110110011101101011011001110110011101100111011010110110101101101011011010110110101101101011011010110110101101101011011010110110011101101011 p"
b111000001110000011100000111000001100111011001110110011101100111011010110110101101100111011001110110011101100111011001110110011101101011011001110110011101100111011010110110101101101011011010110110101101101011011010110110101101101011011010110110011101101011 /#
b1 0#
b110101101101011011010110110101101101011011010110110101101101011011010110110101101101011011010110110101101101011011010110110011101101011011010110110101101101011011010110110101101101011011001110110011101100111011001110110011101100111011001110110011101101011 Q"
b110101101101011011010110110101101101011011010110110101101101011011010110110101101101011011010110110101101101011011010110110011101101011011010110110101101101011011010110110101101101011011001110110011101100111011001110110011101100111011001110110011101101011 |"
b110101101101011011010110110101101101011011010110110101101101011011010110110101101101011011010110110101101101011011010110110011101101011011010110110101101101011011010110110101101101011011001110110011101100111011001110110011101100111011001110110011101101011 9#
b111 :#
b11111111110011011001110000100001 L"
b11111111110011011001110000100001 m"
b11111111110011011001110000100001 o"
b100101111011100001010001 M"
b100101111011100001010001 l"
b100101111011100001010001 n"
b111000001110000011100000111000001110000011100000110011101100111011010110110101101110000011001110110011101100111011001110110011101101011011001110110011101100111011010110110101101101011011010110111000001110000011010110110101101101011011010110110011101101011 ^"
b111000001110000011100000111000001110000011100000110011101100111011010110110101101110000011001110110011101100111011001110110011101101011011001110110011101100111011010110110101101101011011010110111000001110000011010110110101101101011011010110110011101101011 k"
b111000001110000011100000111000001110000011100000110011101100111011010110110101101110000011001110110011101100111011001110110011101101011011001110110011101100111011010110110101101101011011010110111000001110000011010110110101101101011011010110110011101101011 .#
b1000000011111111 V"
b1000000011111111 y"
b1000000011111111 {"
b1001000000000001 W"
b1001000000000001 x"
b1001000000000001 z"
b110101101101011011010110110101101101011011010110110101101101011011010110110101101101011011010110110101101101011011010110110011101101011011010110110101101101011011010110110101101101011011001110110011101100111011001110110011101100111011001110110011101101011 \"
b110101101101011011010110110101101101011011010110110101101101011011010110110101101101011011010110110101101101011011010110110011101101011011010110110101101101011011010110110101101101011011001110110011101100111011001110110011101100111011001110110011101101011 w"
b110101101101011011010110110101101101011011010110110101101101011011010110110101101101011011010110110101101101011011010110110011101101011011010110110101101101011011010110110101101101011011001110110011101100111011001110110011101100111011001110110011101101011 8#
b111000001110000011100000111000001110000011100000111000001110000011100000111000001110000011100000111000001110000011100000111000001110000011100000111000001110000011010110111000001100111011001110111000001101011011100000110011101110000011001110111000001101011 J"
b111000001110000011100000111000001110000011100000111000001110000011100000111000001110000011100000111000001110000011100000111000001110000011100000111000001110000011010110111000001100111011001110111000001101011011100000110011101110000011001110111000001101011 d"
b1110000 q
b1110000 w
b1110000 ("
b1110000 Y
b1101011 \
b1110000 b
b1110000 k
b1110000 A
b1101011 J
b111000001110000011100000111000001110000011100000111000001110000 n
b1110000 ""
b1100111 V
b1110000 _
b111000001110000011100000111000001110000011010110111000001100111 S
b1110000 h
b1110000 ;
b1100111 >
b1100111 D
b11100000111000001110000011100000111000001110000011100000111000001110000011100000111000001110000011100000111000001110000011100000111000001110000011100000111000001110000011010110111000001100111011001110111000001101011011100000110011101110000011001110111000001101011 .
b110011101110000011010110111000001100111011100000110011101110000 8
b1100111 P
0-"
00"
03"
06"
09"
0<"
0?"
0B"
0p
0v
0y
0$"
0'"
1U
1X
0[
0a
0j
1=
1@
1C
0I
1L
1O
1,"
1/"
12"
15"
18"
1;"
1>"
1A"
1x
1~
1#"
1T
0]
1f
09
1<
1B
0K
1N
b0 *"
b0 m
b1011 R
b11001111 7
b11111111 )"
b11111111 l
b11110001 Q
b10011010 6
b101111001111 1
b101111001111 G"
b101111001111 I"
b101111001111 c"
b11111111111111111111000110011010 2
b11111111111111111111000110011010 F"
b11111111111111111111000110011010 H"
b11111111111111111111000110011010 b"
b100000 5
b1000 (
1%
#9
b1001 (
0%
